out/dump.vcd
$date
	Tue Oct  7 16:09:30 2025
$end
$version
	Icarus Verilog
$end
$timescale
	1s
$end
$scope module test $end
$var wire 8 ! regA_out [7:0] $end
$var wire 8 " regB_out [7:0] $end
$var reg 1 # add_test_failed $end
$var reg 1 $ and_test_failed $end
$var reg 1 % clk $end
$var reg 1 & inc_test_failed $end
$var reg 1 ' mov_test_failed $end
$var reg 1 ( not_test_failed $end
$var reg 1 ) or_test_failed $end
$var reg 1 * reg_mov_test_failed $end
$var reg 1 + shl_test_failed $end
$var reg 1 , shr_test_failed $end
$var reg 1 - sub_test_failed $end
$var reg 1 . xor_test_failed $end
$scope module Comp $end
$var wire 1 % clk $end
$var wire 8 / one [7:0] $end
$var wire 1 0 reset $end
$var wire 8 1 zero [7:0] $end
$var wire 4 2 status_flags [3:0] $end
$var wire 8 3 regB_out [7:0] $end
$var wire 8 4 regA_out [7:0] $end
$var wire 8 5 pc_addr [7:0] $end
$var wire 7 6 opcode [6:0] $end
$var wire 8 7 muxData_out [7:0] $end
$var wire 8 8 muxB_out [7:0] $end
$var wire 8 9 muxA_out [7:0] $end
$var wire 8 : literal [7:0] $end
$var wire 15 ; instruction [14:0] $end
$var wire 8 < data_mem_out [7:0] $end
$var wire 1 = ctrl_S_D $end
$var wire 2 > ctrl_S_B [1:0] $end
$var wire 2 ? ctrl_S_A [1:0] $end
$var wire 1 @ ctrl_L_PC $end
$var wire 1 A ctrl_L_B $end
$var wire 1 B ctrl_L_A $end
$var wire 1 C ctrl_D_W $end
$var wire 3 D ctrl_ALU_Sel [2:0] $end
$var wire 8 E alu_out [7:0] $end
$var wire 1 F alu_Z $end
$var wire 1 G alu_V $end
$var wire 1 H alu_N $end
$var wire 1 I alu_C $end
$scope module ALU $end
$var wire 8 J B [7:0] $end
$var wire 3 K ALU_Sel [2:0] $end
$var wire 8 L A [7:0] $end
$var reg 1 I C $end
$var reg 1 H N $end
$var reg 8 M Result [7:0] $end
$var reg 1 G V $end
$var reg 1 F Z $end
$upscope $end
$scope module ControlUnit $end
$var wire 7 N opcode [6:0] $end
$var wire 4 O status_flags [3:0] $end
$var wire 1 P Z $end
$var wire 1 Q V $end
$var wire 1 R N $end
$var wire 1 S C $end
$var reg 3 T ALU_Sel [2:0] $end
$var reg 1 C D_W $end
$var reg 1 B L_A $end
$var reg 1 A L_B $end
$var reg 1 @ L_PC $end
$var reg 2 U S_A [1:0] $end
$var reg 2 V S_B [1:0] $end
$var reg 1 = S_D $end
$upscope $end
$scope module DataMemory $end
$var wire 1 % clk $end
$var wire 8 W data_in [7:0] $end
$var wire 1 0 reset $end
$var wire 1 C write_enable $end
$var wire 8 X address [7:0] $end
$var reg 8 Y data_out [7:0] $end
$upscope $end
$scope module InstructionMemory $end
$var wire 15 Z out [14:0] $end
$var wire 8 [ address [7:0] $end
$upscope $end
$scope module MuxA $end
$var wire 8 \ one [7:0] $end
$var wire 2 ] sel [1:0] $end
$var wire 8 ^ zero [7:0] $end
$var wire 8 _ regB [7:0] $end
$var wire 8 ` regA [7:0] $end
$var reg 8 a out [7:0] $end
$upscope $end
$scope module MuxB $end
$var wire 8 b datam [7:0] $end
$var wire 8 c lit [7:0] $end
$var wire 2 d sel [1:0] $end
$var wire 8 e zero [7:0] $end
$var wire 8 f regB [7:0] $end
$var reg 8 g out [7:0] $end
$upscope $end
$scope module MuxData $end
$var wire 8 h lit [7:0] $end
$var wire 1 = sel $end
$var wire 8 i regB [7:0] $end
$var reg 8 j out [7:0] $end
$upscope $end
$scope module ProgramCounter $end
$var wire 1 % clk $end
$var wire 1 @ load $end
$var wire 8 k new_addr [7:0] $end
$var wire 1 0 reset $end
$var reg 8 l addr [7:0] $end
$upscope $end
$scope module Status $end
$var wire 1 % clk $end
$var wire 4 m flags_in [3:0] $end
$var wire 1 0 reset $end
$var reg 4 n flags_out [3:0] $end
$upscope $end
$scope module regA $end
$var wire 1 % clk $end
$var wire 8 o data_in [7:0] $end
$var wire 1 B load $end
$var wire 1 0 reset $end
$var reg 8 p out [7:0] $end
$upscope $end
$scope module regB $end
$var wire 1 % clk $end
$var wire 8 q data_in [7:0] $end
$var wire 1 A load $end
$var wire 1 0 reset $end
$var reg 8 r out [7:0] $end
$upscope $end
$upscope $end
$upscope $end
$enddefinitions $end
$comment Show the parameter values. $end
$dumpall
$end
#0
$dumpvars
b0 r
b101010 q
b0 p
b101010 o
b0 n
b0 m
b0 l
b101010 k
b101010 j
b0 i
b101010 h
b101010 g
b0 f
b0 e
b10 d
b101010 c
bx b
b0 a
b0 `
b0 _
b0 ^
b10 ]
b1 \
b0 [
b1000101010 Z
bx Y
b101010 X
b101010 W
b10 V
b10 U
b0 T
0S
0R
0Q
0P
b0 O
b10 N
b101010 M
b0 L
b0 K
b101010 J
0I
0H
0G
0F
b101010 E
b0 D
0C
1B
0A
0@
b10 ?
b10 >
0=
bx <
b1000101010 ;
b101010 :
b0 9
b101010 8
b101010 7
b10 6
b0 5
b0 4
b0 3
b0 2
b0 1
00
b1 /
0.
0-
0,
0+
0*
0)
0(
0'
0&
0%
0$
0#
b0 "
b0 !
$end
#1
b1111011 E
b1111011 M
b1111011 W
b1111011 o
b1111011 q
b1111011 8
b1111011 J
b1111011 g
b1111011 7
b1111011 X
b1111011 j
1A
b10 >
b10 V
b10 d
b10 ?
b10 U
b10 ]
0B
b1111011 :
b1111011 c
b1111011 h
b1111011 k
b11 6
b11 N
b1101111011 ;
b1101111011 Z
b1 5
b1 [
b1 l
b101010 !
b101010 4
b101010 `
b101010 p
1%
#2
0%
#3
b1010101 E
b1010101 M
b1010101 W
b1010101 o
b1010101 q
b1010101 8
b1010101 J
b1010101 g
b1010101 7
b1010101 X
b1010101 j
b1010101 :
b1010101 c
b1010101 h
b1010101 k
b1111011 "
b1111011 3
b1111011 _
b1111011 f
b1111011 i
b1111011 r
b1101010101 ;
b1101010101 Z
b10 5
b10 [
b10 l
1%
#4
0%
#5
b100 m
1H
b10101010 E
b10101010 M
b10101010 W
b10101010 o
b10101010 q
b10101010 8
b10101010 J
b10101010 g
b10101010 7
b10101010 X
b10101010 j
1B
b10 >
b10 V
b10 d
b10 ?
b10 U
b10 ]
0A
b10101010 :
b10101010 c
b10101010 h
b10101010 k
b10 6
b10 N
b1010101010 ;
b1010101010 Z
b11 5
b11 [
b11 l
b1010101 "
b1010101 3
b1010101 _
b1010101 f
b1010101 i
b1010101 r
1%
#6
0%
#7
b0 m
0H
b1010101 E
b1010101 M
b1010101 W
b1010101 o
b1010101 q
b1010101 8
b1010101 J
b1010101 g
b0 7
b0 X
b0 j
b0 >
b0 V
b0 d
b10 ?
b10 U
b10 ]
1B
1R
b0 :
b0 c
b0 h
b0 k
b0 6
b0 N
b100 2
b100 O
b100 n
b10101010 !
b10101010 4
b10101010 `
b10101010 p
b0 ;
b0 Z
b100 5
b100 [
b100 l
1%
#8
0%
#9
b1100011 E
b1100011 M
b1100011 W
b1100011 o
b1100011 q
b1100011 8
b1100011 J
b1100011 g
b1100011 7
b1100011 X
b1100011 j
b10 >
b10 V
b10 d
b10 ?
b10 U
b10 ]
1B
b1100011 :
b1100011 c
b1100011 h
b1100011 k
b10 6
b10 N
0R
b1001100011 ;
b1001100011 Z
b101 5
b101 [
b101 l
b1010101 !
b1010101 4
b1010101 `
b1010101 p
b0 2
b0 O
b0 n
1%
#10
0%
#11
b1100011 E
b1100011 M
b1100011 W
b1100011 o
b1100011 q
b1100011 9
b1100011 L
b1100011 a
b0 8
b0 J
b0 g
b0 7
b0 X
b0 j
1A
b11 >
b11 V
b11 d
b0 ?
b0 U
b0 ]
0B
b0 :
b0 c
b0 h
b0 k
b1 6
b1 N
b1100011 !
b1100011 4
b1100011 `
b1100011 p
b100000000 ;
b100000000 Z
b110 5
b110 [
b110 l
1%
#12
0%
#13
b10 E
b10 M
b10 W
b10 o
b10 q
b0 9
b0 L
b0 a
b10 8
b10 J
b10 g
b10 7
b10 X
b10 j
b10 ?
b10 U
b10 ]
1B
b10 >
b10 V
b10 d
0A
b10 :
b10 c
b10 h
b10 k
b10 6
b10 N
b1000000010 ;
b1000000010 Z
b111 5
b111 [
b111 l
b1100011 "
b1100011 3
b1100011 _
b1100011 f
b1100011 i
b1100011 r
1%
#14
0%
#15
b11 E
b11 M
b11 W
b11 o
b11 q
b11 8
b11 J
b11 g
b11 7
b11 X
b11 j
1A
b10 >
b10 V
b10 d
b10 ?
b10 U
b10 ]
0B
b11 :
b11 c
b11 h
b11 k
b11 6
b11 N
b10 !
b10 4
b10 `
b10 p
b1100000011 ;
b1100000011 Z
b1000 5
b1000 [
b1000 l
1%
#16
0%
#17
b101 E
b101 M
b101 W
b101 o
b101 q
b10 9
b10 L
b10 a
b0 7
b0 X
b0 j
1B
b0 >
b0 V
b0 d
b0 ?
b0 U
b0 ]
0A
b0 :
b0 c
b0 h
b0 k
b100 6
b100 N
b10000000000 ;
b10000000000 Z
b1001 5
b1001 [
b1001 l
b11 "
b11 3
b11 _
b11 f
b11 i
b11 r
1%
#18
0%
#19
b1111 E
b1111 M
b1111 W
b1111 o
b1111 q
b1010 8
b1010 J
b1010 g
b1010 7
b1010 X
b1010 j
b10 >
b10 V
b10 d
1B
b101 9
b101 L
b101 a
b1010 :
b1010 c
b1010 h
b1010 k
b110 6
b110 N
b101 !
b101 4
b101 `
b101 p
b11000001010 ;
b11000001010 Z
b1010 5
b1010 [
b1010 l
1%
#20
0%
#21
b10100 8
b10100 J
b10100 g
b10100 7
b10100 X
b10100 j
b1 ?
b1 U
b1 ]
1A
b10 >
b10 V
b10 d
0B
b10111 E
b10111 M
b10111 W
b10111 o
b10111 q
b10100 :
b10100 c
b10100 h
b10100 k
b111 6
b111 N
b11 9
b11 L
b11 a
b11100010100 ;
b11100010100 Z
b1011 5
b1011 [
b1011 l
b1111 !
b1111 4
b1111 `
b1111 p
1%
#22
0%
#23
b10100 E
b10100 M
b10100 W
b10100 o
b10100 q
1B
b10 >
b10 V
b10 d
b10 ?
b10 U
b10 ]
0A
b0 9
b0 L
b0 a
b10 6
b10 N
b10111 "
b10111 3
b10111 _
b10111 f
b10111 i
b10111 r
b1000010100 ;
b1000010100 Z
b1100 5
b1100 [
b1100 l
1%
#24
0%
#25
b101 E
b101 M
b101 W
b101 o
b101 q
b101 8
b101 J
b101 g
b101 7
b101 X
b101 j
1A
b10 >
b10 V
b10 d
b10 ?
b10 U
b10 ]
0B
b101 :
b101 c
b101 h
b101 k
b11 6
b11 N
b1100000101 ;
b1100000101 Z
b1101 5
b1101 [
b1101 l
b10100 !
b10100 4
b10100 `
b10100 p
1%
#26
0%
#27
b10100 9
b10100 L
b10100 a
b0 m
0F
b1111 E
b1111 M
b1111 W
b1111 o
b1111 q
b1 D
b1 K
b1 T
1B
b0 >
b0 V
b0 d
b0 ?
b0 U
b0 ]
0A
b101 8
b101 J
b101 g
b0 7
b0 X
b0 j
b0 :
b0 c
b0 h
b0 k
b1000 6
b1000 N
b101 "
b101 3
b101 _
b101 f
b101 i
b101 r
b100000000000 ;
b100000000000 Z
b1110 5
b1110 [
b1110 l
1%
#28
0%
#29
1A
b1 D
b1 K
b1 T
0B
b1010 E
b1010 M
b1010 W
b1010 o
b1010 q
b1001 6
b1001 N
b1111 9
b1111 L
b1111 a
b100100000000 ;
b100100000000 Z
b1111 5
b1111 [
b1111 l
b1111 !
b1111 4
b1111 `
b1111 p
1%
#30
0%
#31
b1000 E
b1000 M
b1000 W
b1000 o
b1000 q
b10 >
b10 V
b10 d
1B
b1 D
b1 K
b1 T
0A
b111 8
b111 J
b111 g
b111 7
b111 X
b111 j
b111 :
b111 c
b111 h
b111 k
b1010 6
b1010 N
b1010 "
b1010 3
b1010 _
b1010 f
b1010 i
b1010 r
b101000000111 ;
b101000000111 Z
b10000 5
b10000 [
b10000 l
1%
#32
0%
#33
1F
0H
b1000 m
0I
b1010 8
b1010 J
b1010 g
b1010 7
b1010 X
b1010 j
b1 ?
b1 U
b1 ]
1A
b1 D
b1 K
b1 T
b10 >
b10 V
b10 d
0B
b0 E
b0 M
b0 W
b0 o
b0 q
b1010 :
b1010 c
b1010 h
b1010 k
b1011 6
b1011 N
b1010 9
b1010 L
b1010 a
b101100001010 ;
b101100001010 Z
b10001 5
b10001 [
b10001 l
b1000 !
b1000 4
b1000 `
b1000 p
1%
#34
0%
#35
1H
b11001010 E
b11001010 M
b11001010 W
b11001010 o
b11001010 q
b100 m
0F
1B
b0 D
b0 K
b0 T
b10 >
b10 V
b10 d
b10 ?
b10 U
b10 ]
0A
1P
b0 9
b0 L
b0 a
b11001010 8
b11001010 J
b11001010 g
b11001010 7
b11001010 X
b11001010 j
b11001010 :
b11001010 c
b11001010 h
b11001010 k
b10 6
b10 N
b1000 2
b1000 O
b1000 n
b0 "
b0 3
b0 _
b0 f
b0 i
b0 r
b1011001010 ;
b1011001010 Z
b10010 5
b10010 [
b10010 l
1%
#36
0%
#37
b100 m
1H
b10101110 E
b10101110 M
b10101110 W
b10101110 o
b10101110 q
b10101110 8
b10101110 J
b10101110 g
b10101110 7
b10101110 X
b10101110 j
1A
b10 >
b10 V
b10 d
b10 ?
b10 U
b10 ]
0B
b10101110 :
b10101110 c
b10101110 h
b10101110 k
b11 6
b11 N
1R
0P
b1110101110 ;
b1110101110 Z
b10011 5
b10011 [
b10011 l
b11001010 !
b11001010 4
b11001010 `
b11001010 p
b100 2
b100 O
b100 n
1%
#38
0%
#39
b11001010 9
b11001010 L
b11001010 a
0F
b100 m
1H
b10001010 E
b10001010 M
b10001010 W
b10001010 o
b10001010 q
b10 D
b10 K
b10 T
1B
b0 >
b0 V
b0 d
b0 ?
b0 U
b0 ]
0A
b10101110 8
b10101110 J
b10101110 g
b0 7
b0 X
b0 j
b0 :
b0 c
b0 h
b0 k
b1100 6
b1100 N
b10101110 "
b10101110 3
b10101110 _
b10101110 f
b10101110 i
b10101110 r
b110000000000 ;
b110000000000 Z
b10100 5
b10100 [
b10100 l
1%
#40
0%
#41
1A
b10 D
b10 K
b10 T
0B
b100 m
1H
b10001010 E
b10001010 M
b10001010 W
b10001010 o
b10001010 q
b1101 6
b1101 N
b10001010 9
b10001010 L
b10001010 a
b110100000000 ;
b110100000000 Z
b10101 5
b10101 [
b10101 l
b10001010 !
b10001010 4
b10001010 `
b10001010 p
1%
#42
0%
#43
b0 9
b0 L
b0 a
0G
0I
b100 m
1H
b11110000 E
b11110000 M
b11110000 W
b11110000 o
b11110000 q
b10 >
b10 V
b10 d
b10 ?
b10 U
b10 ]
1B
b0 D
b0 K
b0 T
0A
b11110000 8
b11110000 J
b11110000 g
b11110000 7
b11110000 X
b11110000 j
b11110000 :
b11110000 c
b11110000 h
b11110000 k
b10 6
b10 N
b10001010 "
b10001010 3
b10001010 _
b10001010 f
b10001010 i
b10001010 r
b1011110000 ;
b1011110000 Z
b10110 5
b10110 [
b10110 l
1%
#44
0%
#45
b0 m
0H
b1010000 E
b1010000 M
b1010000 W
b1010000 o
b1010000 q
b11110000 9
b11110000 L
b11110000 a
b1010101 8
b1010101 J
b1010101 g
b1010101 7
b1010101 X
b1010101 j
b10 D
b10 K
b10 T
b10 >
b10 V
b10 d
b0 ?
b0 U
b0 ]
1B
b1010101 :
b1010101 c
b1010101 h
b1010101 k
b1110 6
b1110 N
b111001010101 ;
b111001010101 Z
b10111 5
b10111 [
b10111 l
b11110000 !
b11110000 4
b11110000 `
b11110000 p
1%
#46
0%
#47
1H
b100 m
0I
b11001100 E
b11001100 M
b11001100 W
b11001100 o
b11001100 q
b11001100 8
b11001100 J
b11001100 g
b11001100 7
b11001100 X
b11001100 j
b10 ?
b10 U
b10 ]
1A
b0 D
b0 K
b0 T
b10 >
b10 V
b10 d
0B
0R
b0 9
b0 L
b0 a
b11001100 :
b11001100 c
b11001100 h
b11001100 k
b11 6
b11 N
b0 2
b0 O
b0 n
b1010000 !
b1010000 4
b1010000 `
b1010000 p
b1111001100 ;
b1111001100 Z
b11000 5
b11000 [
b11000 l
1%
#48
0%
#49
b100 m
1H
b10001000 E
b10001000 M
b10001000 W
b10001000 o
b10001000 q
b11001100 9
b11001100 L
b11001100 a
b10101010 8
b10101010 J
b10101010 g
b10101010 7
b10101010 X
b10101010 j
b10 D
b10 K
b10 T
b10 >
b10 V
b10 d
b1 ?
b1 U
b1 ]
1A
b10101010 :
b10101010 c
b10101010 h
b10101010 k
b1111 6
b1111 N
1R
b111110101010 ;
b111110101010 Z
b11001 5
b11001 [
b11001 l
b11001100 "
b11001100 3
b11001100 _
b11001100 f
b11001100 i
b11001100 r
b100 2
b100 O
b100 n
1%
#50
0%
#51
0G
0I
b100 m
1H
b11001010 E
b11001010 M
b11001010 W
b11001010 o
b11001010 q
1B
b0 D
b0 K
b0 T
b10 >
b10 V
b10 d
b10 ?
b10 U
b10 ]
0A
b0 9
b0 L
b0 a
b11001010 8
b11001010 J
b11001010 g
b11001010 7
b11001010 X
b11001010 j
b11001010 :
b11001010 c
b11001010 h
b11001010 k
b10 6
b10 N
b10001000 "
b10001000 3
b10001000 _
b10001000 f
b10001000 i
b10001000 r
b1011001010 ;
b1011001010 Z
b11010 5
b11010 [
b11010 l
1%
#52
0%
#53
b100 m
1H
b10101110 E
b10101110 M
b10101110 W
b10101110 o
b10101110 q
b10101110 8
b10101110 J
b10101110 g
b10101110 7
b10101110 X
b10101110 j
1A
b10 >
b10 V
b10 d
b10 ?
b10 U
b10 ]
0B
b10101110 :
b10101110 c
b10101110 h
b10101110 k
b11 6
b11 N
b1110101110 ;
b1110101110 Z
b11011 5
b11011 [
b11011 l
b11001010 !
b11001010 4
b11001010 `
b11001010 p
1%
#54
0%
#55
b11001010 9
b11001010 L
b11001010 a
0F
b100 m
1H
b11101110 E
b11101110 M
b11101110 W
b11101110 o
b11101110 q
b11 D
b11 K
b11 T
1B
b0 >
b0 V
b0 d
b0 ?
b0 U
b0 ]
0A
b10101110 8
b10101110 J
b10101110 g
b0 7
b0 X
b0 j
b0 :
b0 c
b0 h
b0 k
b10000 6
b10000 N
b10101110 "
b10101110 3
b10101110 _
b10101110 f
b10101110 i
b10101110 r
b1000000000000 ;
b1000000000000 Z
b11100 5
b11100 [
b11100 l
1%
#56
0%
#57
1A
b11 D
b11 K
b11 T
0B
b100 m
1H
b11101110 E
b11101110 M
b11101110 W
b11101110 o
b11101110 q
b10001 6
b10001 N
b11101110 9
b11101110 L
b11101110 a
b1000100000000 ;
b1000100000000 Z
b11101 5
b11101 [
b11101 l
b11101110 !
b11101110 4
b11101110 `
b11101110 p
1%
#58
0%
#59
b0 9
b0 L
b0 a
0I
b0 m
0H
b110011 E
b110011 M
b110011 W
b110011 o
b110011 q
b10 >
b10 V
b10 d
b10 ?
b10 U
b10 ]
1B
b0 D
b0 K
b0 T
0A
b110011 8
b110011 J
b110011 g
b110011 7
b110011 X
b110011 j
b110011 :
b110011 c
b110011 h
b110011 k
b10 6
b10 N
b11101110 "
b11101110 3
b11101110 _
b11101110 f
b11101110 i
b11101110 r
b1000110011 ;
b1000110011 Z
b11110 5
b11110 [
b11110 l
1%
#60
0%
#61
b100 m
1H
b11110011 E
b11110011 M
b11110011 W
b11110011 o
b11110011 q
b110011 9
b110011 L
b110011 a
b11110000 8
b11110000 J
b11110000 g
b11110000 7
b11110000 X
b11110000 j
b11 D
b11 K
b11 T
b10 >
b10 V
b10 d
b0 ?
b0 U
b0 ]
1B
b11110000 :
b11110000 c
b11110000 h
b11110000 k
b10010 6
b10010 N
0R
b1001011110000 ;
b1001011110000 Z
b11111 5
b11111 [
b11111 l
b110011 !
b110011 4
b110011 `
b110011 p
b0 2
b0 O
b0 n
1%
#62
0%
#63
0I
b100 m
1H
b10100101 E
b10100101 M
b10100101 W
b10100101 o
b10100101 q
b10100101 8
b10100101 J
b10100101 g
b10100101 7
b10100101 X
b10100101 j
b10 ?
b10 U
b10 ]
1A
b0 D
b0 K
b0 T
b10 >
b10 V
b10 d
0B
1R
b0 9
b0 L
b0 a
b10100101 :
b10100101 c
b10100101 h
b10100101 k
b11 6
b11 N
b100 2
b100 O
b100 n
b11110011 !
b11110011 4
b11110011 `
b11110011 p
b1110100101 ;
b1110100101 Z
b100000 5
b100000 [
b100000 l
1%
#64
0%
#65
b100 m
1H
b11111111 E
b11111111 M
b11111111 W
b11111111 o
b11111111 q
b10100101 9
b10100101 L
b10100101 a
b1011010 8
b1011010 J
b1011010 g
b1011010 7
b1011010 X
b1011010 j
b11 D
b11 K
b11 T
b10 >
b10 V
b10 d
b1 ?
b1 U
b1 ]
1A
b1011010 :
b1011010 c
b1011010 h
b1011010 k
b10011 6
b10011 N
b1001101011010 ;
b1001101011010 Z
b100001 5
b100001 [
b100001 l
b10100101 "
b10100101 3
b10100101 _
b10100101 f
b10100101 i
b10100101 r
1%
#66
0%
#67
0I
b100 m
1H
b10101010 E
b10101010 M
b10101010 W
b10101010 o
b10101010 q
1B
b0 D
b0 K
b0 T
b10 >
b10 V
b10 d
b10 ?
b10 U
b10 ]
0A
b0 9
b0 L
b0 a
b10101010 8
b10101010 J
b10101010 g
b10101010 7
b10101010 X
b10101010 j
b10101010 :
b10101010 c
b10101010 h
b10101010 k
b10 6
b10 N
b11111111 "
b11111111 3
b11111111 _
b11111111 f
b11111111 i
b11111111 r
b1010101010 ;
b1010101010 Z
b100010 5
b100010 [
b100010 l
1%
#68
0%
#69
b0 m
0H
b1010101 E
b1010101 M
b1010101 W
b1010101 o
b1010101 q
b10101010 9
b10101010 L
b10101010 a
b11111111 8
b11111111 J
b11111111 g
b0 7
b0 X
b0 j
b101 D
b101 K
b101 T
b0 >
b0 V
b0 d
b0 ?
b0 U
b0 ]
1B
b0 :
b0 c
b0 h
b0 k
b10100 6
b10100 N
b1010000000000 ;
b1010000000000 Z
b100011 5
b100011 [
b100011 l
b10101010 !
b10101010 4
b10101010 `
b10101010 p
1%
#70
0%
#71
1H
b100 m
0I
b11001100 E
b11001100 M
b11001100 W
b11001100 o
b11001100 q
b11001100 8
b11001100 J
b11001100 g
b11001100 7
b11001100 X
b11001100 j
b10 >
b10 V
b10 d
b10 ?
b10 U
b10 ]
1A
b0 D
b0 K
b0 T
0B
0R
b0 9
b0 L
b0 a
b11001100 :
b11001100 c
b11001100 h
b11001100 k
b11 6
b11 N
b0 2
b0 O
b0 n
b1010101 !
b1010101 4
b1010101 `
b1010101 p
b1111001100 ;
b1111001100 Z
b100100 5
b100100 [
b100100 l
1%
#72
0%
#73
b0 m
0H
b110011 E
b110011 M
b110011 W
b110011 o
b110011 q
b11001100 9
b11001100 L
b11001100 a
b0 8
b0 J
b0 g
b0 7
b0 X
b0 j
b101 D
b101 K
b101 T
b10 >
b10 V
b10 d
b1 ?
b1 U
b1 ]
1A
b0 :
b0 c
b0 h
b0 k
b10111 6
b10111 N
1R
b1011100000000 ;
b1011100000000 Z
b100101 5
b100101 [
b100101 l
b11001100 "
b11001100 3
b11001100 _
b11001100 f
b11001100 i
b11001100 r
b100 2
b100 O
b100 n
1%
#74
0%
#75
1H
b100 m
0I
b11111111 E
b11111111 M
b11111111 W
b11111111 o
b11111111 q
1B
b0 D
b0 K
b0 T
b10 >
b10 V
b10 d
b10 ?
b10 U
b10 ]
0A
0R
b0 9
b0 L
b0 a
b11111111 8
b11111111 J
b11111111 g
b11111111 7
b11111111 X
b11111111 j
b11111111 :
b11111111 c
b11111111 h
b11111111 k
b10 6
b10 N
b0 2
b0 O
b0 n
b110011 "
b110011 3
b110011 _
b110011 f
b110011 i
b110011 r
b1011111111 ;
b1011111111 Z
b100110 5
b100110 [
b100110 l
1%
#76
0%
#77
b100 m
1H
b11110000 E
b11110000 M
b11110000 W
b11110000 o
b11110000 q
b11110000 8
b11110000 J
b11110000 g
b11110000 7
b11110000 X
b11110000 j
1A
b10 >
b10 V
b10 d
b10 ?
b10 U
b10 ]
0B
b11110000 :
b11110000 c
b11110000 h
b11110000 k
b11 6
b11 N
1R
b1111110000 ;
b1111110000 Z
b100111 5
b100111 [
b100111 l
b11111111 !
b11111111 4
b11111111 `
b11111111 p
b100 2
b100 O
b100 n
1%
#78
0%
#79
b11110000 9
b11110000 L
b11110000 a
b0 m
0H
b1111 E
b1111 M
b1111 W
b1111 o
b1111 q
b101 D
b101 K
b101 T
1B
b0 >
b0 V
b0 d
b1 ?
b1 U
b1 ]
0A
b11110000 8
b11110000 J
b11110000 g
b0 7
b0 X
b0 j
b0 :
b0 c
b0 h
b0 k
b10101 6
b10101 N
b11110000 "
b11110000 3
b11110000 _
b11110000 f
b11110000 i
b11110000 r
b1010100000000 ;
b1010100000000 Z
b101000 5
b101000 [
b101000 l
1%
#80
0%
#81
b1111 E
b1111 M
b1111 W
b1111 o
b1111 q
b0 9
b0 L
b0 a
b1111 8
b1111 J
b1111 g
b1111 7
b1111 X
b1111 j
b10 >
b10 V
b10 d
b0 D
b0 K
b0 T
b10 ?
b10 U
b10 ]
1B
b1111 :
b1111 c
b1111 h
b1111 k
b10 6
b10 N
0R
b1000001111 ;
b1000001111 Z
b101001 5
b101001 [
b101001 l
b1111 !
b1111 4
b1111 `
b1111 p
b0 2
b0 O
b0 n
1%
#82
0%
#83
b100 m
1H
b11111111 E
b11111111 M
b11111111 W
b11111111 o
b11111111 q
b11111111 8
b11111111 J
b11111111 g
b11111111 7
b11111111 X
b11111111 j
1A
b10 >
b10 V
b10 d
b10 ?
b10 U
b10 ]
0B
b11111111 :
b11111111 c
b11111111 h
b11111111 k
b11 6
b11 N
b1111111111 ;
b1111111111 Z
b101010 5
b101010 [
b101010 l
1%
#84
0%
#85
b100 m
1H
b11110000 E
b11110000 M
b11110000 W
b11110000 o
b11110000 q
b1111 9
b1111 L
b1111 a
b0 8
b0 J
b0 g
b0 7
b0 X
b0 j
b101 D
b101 K
b101 T
b10 >
b10 V
b10 d
b0 ?
b0 U
b0 ]
1A
b0 :
b0 c
b0 h
b0 k
b10110 6
b10110 N
1R
b1011000000000 ;
b1011000000000 Z
b101011 5
b101011 [
b101011 l
b11111111 "
b11111111 3
b11111111 _
b11111111 f
b11111111 i
b11111111 r
b100 2
b100 O
b100 n
1%
#86
0%
#87
b0 9
b0 L
b0 a
b100 m
1H
b11001010 E
b11001010 M
b11001010 W
b11001010 o
b11001010 q
b10 ?
b10 U
b10 ]
1B
b0 D
b0 K
b0 T
b10 >
b10 V
b10 d
0A
b11001010 8
b11001010 J
b11001010 g
b11001010 7
b11001010 X
b11001010 j
b11001010 :
b11001010 c
b11001010 h
b11001010 k
b10 6
b10 N
b11110000 "
b11110000 3
b11110000 _
b11110000 f
b11110000 i
b11110000 r
b1011001010 ;
b1011001010 Z
b101100 5
b101100 [
b101100 l
1%
#88
0%
#89
b100 m
1H
b10101110 E
b10101110 M
b10101110 W
b10101110 o
b10101110 q
b10101110 8
b10101110 J
b10101110 g
b10101110 7
b10101110 X
b10101110 j
1A
b10 >
b10 V
b10 d
b10 ?
b10 U
b10 ]
0B
b10101110 :
b10101110 c
b10101110 h
b10101110 k
b11 6
b11 N
b1110101110 ;
b1110101110 Z
b101101 5
b101101 [
b101101 l
b11001010 !
b11001010 4
b11001010 `
b11001010 p
1%
#90
0%
#91
b11001010 9
b11001010 L
b11001010 a
0F
b0 m
0H
b1100100 E
b1100100 M
b1100100 W
b1100100 o
b1100100 q
b100 D
b100 K
b100 T
1B
b0 >
b0 V
b0 d
b0 ?
b0 U
b0 ]
0A
b10101110 8
b10101110 J
b10101110 g
b0 7
b0 X
b0 j
b0 :
b0 c
b0 h
b0 k
b11000 6
b11000 N
b10101110 "
b10101110 3
b10101110 _
b10101110 f
b10101110 i
b10101110 r
b1100000000000 ;
b1100000000000 Z
b101110 5
b101110 [
b101110 l
1%
#92
0%
#93
b100 m
1H
b11001010 E
b11001010 M
b11001010 W
b11001010 o
b11001010 q
b100 D
b100 K
b100 T
1B
b1100100 9
b1100100 L
b1100100 a
0R
b101111 5
b101111 [
b101111 l
b1100100 !
b1100100 4
b1100100 `
b1100100 p
b0 2
b0 O
b0 n
1%
#94
0%
#95
0I
b100 m
1H
b11110000 E
b11110000 M
b11110000 W
b11110000 o
b11110000 q
b11110000 8
b11110000 J
b11110000 g
b11110000 7
b11110000 X
b11110000 j
b10 >
b10 V
b10 d
b10 ?
b10 U
b10 ]
b0 D
b0 K
b0 T
1B
1R
b0 9
b0 L
b0 a
b11110000 :
b11110000 c
b11110000 h
b11110000 k
b10 6
b10 N
b100 2
b100 O
b100 n
b11001010 !
b11001010 4
b11001010 `
b11001010 p
b1011110000 ;
b1011110000 Z
b110000 5
b110000 [
b110000 l
1%
#96
0%
#97
b100 m
1H
b10101010 E
b10101010 M
b10101010 W
b10101010 o
b10101010 q
b10101010 8
b10101010 J
b10101010 g
b10101010 7
b10101010 X
b10101010 j
1A
b10 >
b10 V
b10 d
b10 ?
b10 U
b10 ]
0B
b10101010 :
b10101010 c
b10101010 h
b10101010 k
b11 6
b11 N
b1110101010 ;
b1110101010 Z
b110001 5
b110001 [
b110001 l
b11110000 !
b11110000 4
b11110000 `
b11110000 p
1%
#98
0%
#99
b11110000 9
b11110000 L
b11110000 a
0F
b0 m
0H
b1011010 E
b1011010 M
b1011010 W
b1011010 o
b1011010 q
b100 D
b100 K
b100 T
b0 >
b0 V
b0 d
b0 ?
b0 U
b0 ]
1A
b10101010 8
b10101010 J
b10101010 g
b0 7
b0 X
b0 j
b0 :
b0 c
b0 h
b0 k
b11001 6
b11001 N
b10101010 "
b10101010 3
b10101010 _
b10101010 f
b10101010 i
b10101010 r
b1100100000000 ;
b1100100000000 Z
b110010 5
b110010 [
b110010 l
1%
#100
0%
