out/dump.vcd
$date
	Tue Oct  7 22:22:17 2025
$end
$version
	Icarus Verilog
$end
$timescale
	1s
$end
$scope module test $end
$var wire 8 ! regA_out [7:0] $end
$var wire 8 " regB_out [7:0] $end
$var reg 1 # add_a_dir_test_failed $end
$var reg 1 $ clk $end
$var reg 1 % jeq_test_1_failed $end
$var reg 1 & mem_sequence_test_failed $end
$scope module Comp $end
$var wire 1 $ clk $end
$var wire 8 ' one [7:0] $end
$var wire 1 ( reset $end
$var wire 8 ) zero [7:0] $end
$var wire 4 * status_flags [3:0] $end
$var wire 8 + regB_out [7:0] $end
$var wire 8 , regA_out [7:0] $end
$var wire 8 - pc_addr [7:0] $end
$var wire 7 . opcode [6:0] $end
$var wire 8 / muxData_out [7:0] $end
$var wire 8 0 muxB_out [7:0] $end
$var wire 8 1 muxA_out [7:0] $end
$var wire 8 2 literal [7:0] $end
$var wire 15 3 instruction [14:0] $end
$var wire 8 4 data_mem_out [7:0] $end
$var wire 1 5 ctrl_S_D $end
$var wire 2 6 ctrl_S_B [1:0] $end
$var wire 2 7 ctrl_S_A [1:0] $end
$var wire 1 8 ctrl_L_PC $end
$var wire 1 9 ctrl_L_B $end
$var wire 1 : ctrl_L_A $end
$var wire 1 ; ctrl_D_W $end
$var wire 3 < ctrl_ALU_Sel [2:0] $end
$var wire 8 = alu_out [7:0] $end
$var wire 1 > alu_Z $end
$var wire 1 ? alu_V $end
$var wire 1 @ alu_N $end
$var wire 1 A alu_C $end
$scope module ALU $end
$var wire 8 B B [7:0] $end
$var wire 3 C ALU_Sel [2:0] $end
$var wire 8 D A [7:0] $end
$var reg 1 A C $end
$var reg 1 @ N $end
$var reg 8 E Result [7:0] $end
$var reg 1 ? V $end
$var reg 1 > Z $end
$upscope $end
$scope module ControlUnit $end
$var wire 7 F opcode [6:0] $end
$var wire 4 G status_flags [3:0] $end
$var wire 1 H Z $end
$var wire 1 I V $end
$var wire 1 J N $end
$var wire 1 K C $end
$var reg 3 L ALU_Sel [2:0] $end
$var reg 1 ; D_W $end
$var reg 1 : L_A $end
$var reg 1 9 L_B $end
$var reg 1 8 L_PC $end
$var reg 2 M S_A [1:0] $end
$var reg 2 N S_B [1:0] $end
$var reg 1 5 S_D $end
$upscope $end
$scope module DM $end
$var wire 1 $ clk $end
$var wire 8 O data_in [7:0] $end
$var wire 1 ( reset $end
$var wire 1 ; write_enable $end
$var wire 8 P address [7:0] $end
$var reg 8 Q data_out [7:0] $end
$upscope $end
$scope module InstructionMemory $end
$var wire 15 R out [14:0] $end
$var wire 8 S address [7:0] $end
$upscope $end
$scope module MuxA $end
$var wire 8 T one [7:0] $end
$var wire 2 U sel [1:0] $end
$var wire 8 V zero [7:0] $end
$var wire 8 W regB [7:0] $end
$var wire 8 X regA [7:0] $end
$var reg 8 Y out [7:0] $end
$upscope $end
$scope module MuxB $end
$var wire 8 Z datam [7:0] $end
$var wire 8 [ lit [7:0] $end
$var wire 2 \ sel [1:0] $end
$var wire 8 ] zero [7:0] $end
$var wire 8 ^ regB [7:0] $end
$var reg 8 _ out [7:0] $end
$upscope $end
$scope module MuxData $end
$var wire 8 ` lit [7:0] $end
$var wire 1 5 sel $end
$var wire 8 a regB [7:0] $end
$var reg 8 b out [7:0] $end
$upscope $end
$scope module ProgramCounter $end
$var wire 1 $ clk $end
$var wire 1 8 load $end
$var wire 8 c new_addr [7:0] $end
$var wire 1 ( reset $end
$var reg 8 d addr [7:0] $end
$upscope $end
$scope module Status $end
$var wire 1 $ clk $end
$var wire 4 e flags_in [3:0] $end
$var wire 1 ( reset $end
$var reg 4 f flags_out [3:0] $end
$upscope $end
$scope module regA $end
$var wire 1 $ clk $end
$var wire 8 g data_in [7:0] $end
$var wire 1 : load $end
$var wire 1 ( reset $end
$var reg 8 h out [7:0] $end
$upscope $end
$scope module regB $end
$var wire 1 $ clk $end
$var wire 8 i data_in [7:0] $end
$var wire 1 9 load $end
$var wire 1 ( reset $end
$var reg 8 j out [7:0] $end
$upscope $end
$upscope $end
$upscope $end
$enddefinitions $end
$comment Show the parameter values. $end
$dumpall
$end
#0
$dumpvars
b0 j
b1100011 i
b0 h
b1100011 g
b0 f
b0 e
b0 d
b1100011 c
b1100011 b
b0 a
b1100011 `
b1100011 _
b0 ^
b0 ]
b10 \
b1100011 [
bx Z
b0 Y
b0 X
b0 W
b0 V
b10 U
b1 T
b0 S
b1101100011 R
bx Q
b1100011 P
b1100011 O
b10 N
b10 M
b0 L
0K
0J
0I
0H
b0 G
b11 F
b1100011 E
b0 D
b0 C
b1100011 B
0A
0@
0?
0>
b1100011 =
b0 <
0;
0:
19
08
b10 7
b10 6
05
bx 4
b1101100011 3
b1100011 2
b0 1
b1100011 0
b1100011 /
b11 .
b0 -
b0 ,
b0 +
b0 *
b0 )
0(
b1 '
0&
0%
0$
0#
b0 "
b0 !
$end
#1
b110010 /
b110010 P
b110010 b
1;
b0 6
b0 N
b0 \
b10 7
b10 M
b10 U
09
b110010 2
b110010 [
b110010 `
b110010 c
b101000 .
b101000 F
b10100000110010 3
b10100000110010 R
b1 -
b1 S
b1 d
b1100011 "
b1100011 +
b1100011 W
b1100011 ^
b1100011 a
b1100011 j
1$
#2
0$
#3
b1 6
b1 N
b1 \
1:
b10 7
b10 M
b10 U
0;
b1100011 4
b1100011 Q
b1100011 Z
b100101 .
b100101 F
b10010100110010 3
b10010100110010 R
b10 -
b10 S
b10 d
1$
#4
0$
#5
b1111011 =
b1111011 E
b1111011 O
b1111011 g
b1111011 i
bx 4
bx Q
bx Z
b1111011 0
b1111011 B
b1111011 _
b1111011 /
b1111011 P
b1111011 b
b10 6
b10 N
b10 \
b10 7
b10 M
b10 U
1:
b1111011 2
b1111011 [
b1111011 `
b1111011 c
b10 .
b10 F
b1001111011 3
b1001111011 R
b11 -
b11 S
b11 d
b1100011 !
b1100011 ,
b1100011 X
b1100011 h
1$
#6
0$
#7
b1111011 =
b1111011 E
b1111011 O
b1111011 g
b1111011 i
b1111011 1
b1111011 D
b1111011 Y
b0 0
b0 B
b0 _
b110011 /
b110011 P
b110011 b
1;
b11 6
b11 N
b11 \
b0 7
b0 M
b0 U
0:
b110011 2
b110011 [
b110011 `
b110011 c
b100111 .
b100111 F
b1111011 !
b1111011 ,
b1111011 X
b1111011 h
b10011100110011 3
b10011100110011 R
b100 -
b100 S
b100 d
1$
#8
0$
#9
b1111011 =
b1111011 E
b1111011 O
b1111011 g
b1111011 i
b0 1
b0 D
b0 Y
b1111011 0
b1111011 B
b1111011 _
b10 7
b10 M
b10 U
19
b1 6
b1 N
b1 \
0;
b100110 .
b100110 F
b1111011 4
b1111011 Q
b1111011 Z
b10011000110011 3
b10011000110011 R
b101 -
b101 S
b101 d
1$
#10
0$
#11
b100 e
1@
b11111111 =
b11111111 E
b11111111 O
b11111111 g
b11111111 i
b11111111 0
b11111111 B
b11111111 _
bx 4
bx Q
bx Z
1:
b10 6
b10 N
b10 \
b10 7
b10 M
b10 U
09
b11111111 /
b11111111 P
b11111111 b
b11111111 2
b11111111 [
b11111111 `
b11111111 c
b10 .
b10 F
b1111011 "
b1111011 +
b1111011 W
b1111011 ^
b1111011 a
b1111011 j
b1011111111 3
b1011111111 R
b110 -
b110 S
b110 d
1$
#12
0$
#13
b100 e
1@
b11111111 =
b11111111 E
b11111111 O
b11111111 g
b11111111 i
b1100011 4
b1100011 Q
b1100011 Z
b11111111 1
b11111111 D
b11111111 Y
b0 0
b0 B
b0 _
b110010 /
b110010 P
b110010 b
1;
b11 6
b11 N
b11 \
b0 7
b0 M
b0 U
0:
b110010 2
b110010 [
b110010 `
b110010 c
b100111 .
b100111 F
1J
b10011100110010 3
b10011100110010 R
b111 -
b111 S
b111 d
b11111111 !
b11111111 ,
b11111111 X
b11111111 h
b100 *
b100 G
b100 f
1$
#14
0$
#15
1>
b1000 e
0@
b0 =
b0 E
b0 O
b0 g
b0 i
b0 1
b0 D
b0 Y
b0 /
b0 P
b0 b
b10 7
b10 M
b10 U
1:
b10 6
b10 N
b10 \
0;
bx 4
bx Q
bx Z
b0 2
b0 [
b0 `
b0 c
b10 .
b10 F
b1000000000 3
b1000000000 R
b1000 -
b1000 S
b1000 d
1$
#16
0$
#17
0?
1@
0A
b11111111 =
b11111111 E
b11111111 O
b11111111 g
b11111111 i
b100 e
0>
b11111111 4
b11111111 Q
b11111111 Z
b11111111 0
b11111111 B
b11111111 _
b110010 /
b110010 P
b110010 b
b1 6
b1 N
b1 \
b10 7
b10 M
b10 U
1:
b110010 2
b110010 [
b110010 `
b110010 c
b100101 .
b100101 F
0J
1H
b10010100110010 3
b10010100110010 R
b1001 -
b1001 S
b1001 d
b0 !
b0 ,
b0 X
b0 h
b1000 *
b1000 G
b1000 f
1$
#18
0$
#19
b0 e
0@
b1100100 =
b1100100 E
b1100100 O
b1100100 g
b1100100 i
bx 4
bx Q
bx Z
b1100100 0
b1100100 B
b1100100 _
b1100100 /
b1100100 P
b1100100 b
b10 6
b10 N
b10 \
b10 7
b10 M
b10 U
1:
1J
0H
b1100100 2
b1100100 [
b1100100 `
b1100100 c
b10 .
b10 F
b100 *
b100 G
b100 f
b11111111 !
b11111111 ,
b11111111 X
b11111111 h
b1001100100 3
b1001100100 R
b1010 -
b1010 S
b1010 d
1$
#20
0$
#21
b110010 =
b110010 E
b110010 O
b110010 g
b110010 i
b11111111 4
b11111111 Q
b11111111 Z
b110010 0
b110010 B
b110010 _
b110010 /
b110010 P
b110010 b
19
b10 6
b10 N
b10 \
b10 7
b10 M
b10 U
0:
b110010 2
b110010 [
b110010 `
b110010 c
b11 .
b11 F
0J
b1100110010 3
b1100110010 R
b1011 -
b1011 S
b1011 d
b1100100 !
b1100100 ,
b1100100 X
b1100100 h
b0 *
b0 G
b0 f
1$
#22
0$
#23
b110010 =
b110010 E
b110010 O
b110010 g
b110010 i
bx 4
bx Q
bx Z
1;
b0 6
b0 N
b0 \
b10 7
b10 M
b10 U
09
b110010 0
b110010 B
b110010 _
b1111000 /
b1111000 P
b1111000 b
b1111000 2
b1111000 [
b1111000 `
b1111000 c
b101000 .
b101000 F
b110010 "
b110010 +
b110010 W
b110010 ^
b110010 a
b110010 j
b10100001111000 3
b10100001111000 R
b1100 -
b1100 S
b1100 d
1$
#24
0$
#25
1?
b101 e
1@
b10010110 =
b10010110 E
b10010110 O
b10010110 g
b10010110 i
b1100100 1
b1100100 D
b1100100 Y
b1 6
b1 N
b1 \
1:
b0 7
b0 M
b0 U
0;
b101100 .
b101100 F
b110010 4
b110010 Q
b110010 Z
b10110001111000 3
b10110001111000 R
b1101 -
b1101 S
b1101 d
1$
#26
0$
#27
bx 4
bx Q
bx Z
0?
b0 e
0@
b11001 =
b11001 E
b11001 O
b11001 g
b11001 i
b11001 0
b11001 B
b11001 _
b11001 /
b11001 P
b11001 b
b10 7
b10 M
b10 U
b10 6
b10 N
b10 \
1:
1I
1J
b0 1
b0 D
b0 Y
b11001 2
b11001 [
b11001 `
b11001 c
b10 .
b10 F
b101 *
b101 G
b101 f
b10010110 !
b10010110 ,
b10010110 X
b10010110 h
b1000011001 3
b1000011001 R
b1110 -
b1110 S
b1110 d
1$
#28
0$
#29
19
b10 6
b10 N
b10 \
b10 7
b10 M
b10 U
0:
b11 .
b11 F
0I
0J
b1100011001 3
b1100011001 R
b1111 -
b1111 S
b1111 d
b11001 !
b11001 ,
b11001 X
b11001 h
b0 *
b0 G
b0 f
1$
#30
0$
#31
b11001 1
b11001 D
b11001 Y
b1000 e
1>
b0 =
b0 E
b0 O
b0 g
b0 i
b1 <
b1 C
b1 L
b0 6
b0 N
b0 \
b0 7
b0 M
b0 U
09
b11001 0
b11001 B
b11001 _
b0 /
b0 P
b0 b
b0 2
b0 [
b0 `
b0 c
b1001101 .
b1001101 F
b11001 "
b11001 +
b11001 W
b11001 ^
b11001 a
b11001 j
b100110100000000 3
b100110100000000 R
b10000 -
b10000 S
b10000 d
1$
#32
0$
#33
b1 1
b1 D
b1 Y
b0 =
b0 E
b0 O
b0 g
b0 i
1A
b1010 e
1>
b0 0
b0 B
b0 _
b10100 /
b10100 P
b10100 b
b11 6
b11 N
b11 \
b11 7
b11 M
b11 U
18
b111 <
b111 C
b111 L
b10100 2
b10100 [
b10100 `
b10100 c
b1010100 .
b1010100 F
1H
b101010000010100 3
b101010000010100 R
b10001 -
b10001 S
b10001 d
b1000 *
b1000 G
b1000 f
1$
#34
0$
#35
b1 =
b1 E
b1 O
b1 g
b1 i
0A
b0 e
0>
b0 1
b0 D
b0 Y
b1 0
b1 B
b1 _
b1 /
b1 P
b1 b
19
b0 <
b0 C
b0 L
b10 6
b10 N
b10 \
b10 7
b10 M
b10 U
08
1K
b1 2
b1 [
b1 `
b1 c
b11 .
b11 F
b1010 *
b1010 G
b1010 f
b1100000001 3
b1100000001 R
b10100 -
b10100 S
b10100 d
1$
#36
0$
#37
b1100100 /
b1100100 P
b1100100 b
1;
b0 6
b0 N
b0 \
b10 7
b10 M
b10 U
09
b1100100 2
b1100100 [
b1100100 `
b1100100 c
b101000 .
b101000 F
0K
0H
b10100001100100 3
b10100001100100 R
b10101 -
b10101 S
b10101 d
b1 "
b1 +
b1 W
b1 ^
b1 a
b1 j
b0 *
b0 G
b0 f
1$
#38
0$
#39
b11010 =
b11010 E
b11010 O
b11010 g
b11010 i
b11001 1
b11001 D
b11001 Y
bx /
bx P
bx b
b0 7
b0 M
b0 U
0;
bx 4
bx Q
bx Z
bx 2
bx [
bx `
bx c
bx .
bx F
bx 3
bx R
b10110 -
b10110 S
b10110 d
1$
#40
0$
#41
b10111 -
b10111 S
b10111 d
1$
#42
0$
#43
b11000 -
b11000 S
b11000 d
1$
#44
0$
#45
b11001 -
b11001 S
b11001 d
1$
